NACA 43016
1.00007684	0.00173080
0.99905832	0.00197428
0.99600688	0.00270221
0.99093487	0.00390717
0.98386279	0.00557696
0.97481929	0.00769497
0.96384099	0.01024059
0.95097240	0.01318964
0.93626573	0.01651496
0.91978070	0.02018688
0.90158431	0.02417374
0.88175060	0.02844235
0.86036031	0.03295832
0.83750061	0.03768637
0.81326468	0.04259045
0.78775138	0.04763385
0.76106482	0.05277914
0.73331389	0.05798807
0.70461184	0.06322141
0.67507577	0.06843880
0.64482615	0.07359857
0.61398632	0.07865767
0.58268195	0.08357163
0.55104054	0.08829472
0.51919091	0.09278014
0.48726263	0.09698044
0.45538557	0.10084809
0.42368934	0.10433618
0.39230280	0.10739920
0.36135356	0.10999401
0.33096752	0.11208078
0.30126833	0.11362395
0.27237697	0.11459319
0.24441126	0.11496419
0.21748540	0.11471931
0.19145672	0.11384348
0.16538800	0.11209725
0.13962679	0.10902874
0.11472197	0.10431656
0.09123635	0.09782591
0.06970629	0.08962555
0.05058955	0.07997232
0.03422080	0.06926339
0.02079265	0.05796936
0.01036607	0.04656761
0.00290021	0.03549019
-0.00171296	0.02509058
-0.00362024	0.01562564
-0.00298916	0.00724728
0.00000000	0.00000000
0.00504377	-0.00599400
0.01183022	-0.01069906
0.02015380	-0.01432443
0.02980492	-0.01712196
0.04057818	-0.01936079
0.05229059	-0.02129856
0.06481033	-0.02315467
0.07809175	-0.02509341
0.09220560	-0.02722261
0.10735003	-0.02960634
0.12383207	-0.03227993
0.14202386	-0.03525047
0.16231111	-0.03847221
0.18505348	-0.04179895
0.21039794	-0.04492460
0.23719618	-0.04755458
0.26508474	-0.04966326
0.29394833	-0.05125807
0.32366743	-0.05235279
0.35411885	-0.05296693
0.38517627	-0.05312492
0.41671077	-0.05285531
0.44859140	-0.05218974
0.48068579	-0.05116212
0.51286067	-0.04980771
0.54498248	-0.04816233
0.57691795	-0.04626176
0.60853462	-0.04414119
0.63970144	-0.04183490
0.67028929	-0.03937603
0.70017150	-0.03679654
0.72922440	-0.03412725
0.75732775	-0.03139800
0.78436528	-0.02863781
0.81022512	-0.02587514
0.83480028	-0.02313804
0.85798904	-0.02045433
0.87969536	-0.01785165
0.89982931	-0.01535742
0.91830741	-0.01299874
0.93505298	-0.01080210
0.94999647	-0.00879312
0.96307577	-0.00699603
0.97423646	-0.00543328
0.98343207	-0.00412500
0.99062429	-0.00308848
0.99578313	-0.00233773
0.99888707	-0.00188306
0.99992316	-0.00173080

